<?xml version="1.0" encoding="utf-8"?>
<!-- Generator: Adobe Illustrator 25.0.1, SVG Export Plug-In . SVG Version: 6.00 Build 0)  -->
<svg version="1.1" id="圖層_1" xmlns="http://www.w3.org/2000/svg" xmlns:xlink="http://www.w3.org/1999/xlink" x="0px" y="0px"
	 viewBox="0 0 409.9 504.6" style="enable-background:new 0 0 409.9 504.6;" xml:space="preserve">
<path d="M346.6,189.3H331v-60.5C331,56.6,278.9,0,204.4,0C129.9,0,79,57.7,79,128.8v59.9l0,0H63.3c-34.7,0-62.7,28-63.3,63.3v189.3
	C0,476,28,504,63.3,504.6h283.4c34.7,0,62.7-28,63.3-63.3V252C409.9,217.3,381.4,189.3,346.6,189.3L346.6,189.3z M110.3,189.3v-60.5
	c0-53.8,37-97.4,94.1-97.4c56.6,0,95.2,42.6,95.2,97.4v59.9l0,0l-189.3,0L110.3,189.3L110.3,189.3z M378,441.3
	c0,17.4-14,31.4-31.4,31.4H63.3c-17.4,0-31.4-14-31.4-31.4V252c0-17.4,14-31.4,31.4-31.4h283.4c17.4,0,31.4,14,31.4,31.4V441.3z
	 M236.3,315.3c0,11.8-6.2,21.8-15.7,27.4h-0.6h0.6v51.5c0,9-7.3,15.7-15.7,15.7c-9,0-15.7-7.3-15.7-15.7v-51.5h0.6h-0.6
	c-9.5-5.6-15.7-15.7-15.7-27.4c0-17.4,14-31.4,31.4-31.4C222.3,283.4,236.3,297.4,236.3,315.3L236.3,315.3z"/>
</svg>
